Numberline
…
t2_min_pts <- -1
t2_max_pts <- 1.2
t2_score_vals <- round(runif(num_students, t2_min_pts, t2_max_pts), 2)
t2_mean <- mean(t2_score_vals)
t2_sd <- sd(t2_score_vals)
get_t2_pctile <- function(s) round(100 * ecdf(t2_score_vals)(s), 2)
score_df <- tibble(
  id=student_ids,
  t1_score=t1_score_vals,
  t2_score=t2_score_vals
)
score_df <- score_df |> arrange(desc(t1_score))
score_df

# A tibble: 30 × 3
      id t1_score t2_score
   <int>    <dbl>    <dbl>
 1     3     264.     0.66
 2     8     254.     0.79
 3    25     247.     0.71
 4    29     242.    -0.75
 5     6     241.     0.39
 6    10     226.     0.73
 7    14     219.    -0.1 
 8    23     205.     1   
 9    12     205.     0.98
10    30     203.    -0.53
# ℹ 20 more rows
…
